<?xml version="1.0" encoding="UTF-8"?>
<svg width="474px" height="215px" viewBox="0 0 474 215" version="1.1" xmlns="http://www.w3.org/2000/svg" xmlns:xlink="http://www.w3.org/1999/xlink">
    
    <path d="M469.444,99 L374.944,4.6 C370.144,-0.2 362.444,-0.2 357.644,4.6 C352.844,9.4 352.844,17.1 357.644,21.9 L431.244,95.5 L12.444,95.5 C5.644,95.5 0.144,101 0.144,107.8 C0.144,114.6 5.644,120.1 12.444,120.1 L431.244,120.1 L357.644,193.5 C352.844,198.3 352.844,206 357.644,210.8 C360.044,213.2 363.144,214.4 366.344,214.4 C369.544,214.4 372.644,213.2 375.044,210.8 L469.544,116.3 C474.244,111.6 474.244,103.8 469.444,99 L469.444,99 Z" id="Shape" ></path>

</svg>
